[
    {
        "users" : [
            {
                "user": "guest",
                "pass": "invitado",
                "admin": false,
                "superadmin": false
            }
        ],
        "cities":[
            {
                "city": "Alcalá de Henares",
                "minube_id": 32769
            },
            {
                "city": "Ávila",
                "minube_id": 4907
            },
            {
                "city": "Baeza",
                "minube_id": 31999
            },
            {
                "city": "Cáceres",
                "minube_id": 4910
            },
            {
                "city": "Córdoba",
                "minube_id": 4918
            },
            {
                "city": "Cuenca",
                "minube_id": 4919
            },
            {
                "city": "Ibiza",
                "minube_id": 1247
            },
            {
                "city": "Mérida",
                "minube_id": 5013
            },
            {
                "city": "Salamanca",
                "minube_id": 1262
            },
            {
                "city": "San Cristóbal de la Laguna",
                "minube_id": 303853
            },
            {
                "city": "Santiago de Compostela",
                "minube_id": 1260
            },
            {
                "city": "Segovia",
                "minube_id": 5018
            },
            {
                "city": "Tarragona",
                "minube_id": 5020
            },
            {
                "city": "Toledo",
                "minube_id": 5021
            },
            {
                "city": "Úbeda",
                "minube_id": 238153
            }
        ]
    }
]